%YAML 1.1
%TAG !u! tag:unity3d.com,2011:
--- !u!114 &11400000
MonoBehaviour:
  m_ObjectHideFlags: 0
  m_CorrespondingSourceObject: {fileID: 0}
  m_PrefabInstance: {fileID: 0}
  m_PrefabAsset: {fileID: 0}
  m_GameObject: {fileID: 0}
  m_Enabled: 1
  m_EditorHideFlags: 0
  m_Script: {fileID: 11500000, guid: 706267771719ab74bb3a587569b33c50, type: 3}
  m_Name: SoilList
  m_EditorClassIdentifier: 
  itemDetails:
  - soilID: 0
    userID: 0
    soilStatus: original
  - soilID: 1
    userID: 0
    soilStatus: digged
  - soilID: 2
    userID: 0
    soilStatus: planted
  - soilID: 3
    userID: 0
    soilStatus: planted
  - soilID: 4
    userID: 0
    soilStatus: digged
  - soilID: 5
    userID: 0
    soilStatus: digged
  - soilID: 6
    userID: 0
    soilStatus: digged
  - soilID: 7
    userID: 0
    soilStatus: planted
  - soilID: 8
    userID: 0
    soilStatus: original
  - soilID: 9
    userID: 0
    soilStatus: digged
  - soilID: 10
    userID: 0
    soilStatus: planted
