%YAML 1.1
%TAG !u! tag:unity3d.com,2011:
--- !u!114 &11400000
MonoBehaviour:
  m_ObjectHideFlags: 0
  m_CorrespondingSourceObject: {fileID: 0}
  m_PrefabInstance: {fileID: 0}
  m_PrefabAsset: {fileID: 0}
  m_GameObject: {fileID: 0}
  m_Enabled: 1
  m_EditorHideFlags: 0
  m_Script: {fileID: 11500000, guid: 5fdc3ea8e76c38e488429936f0ba470f, type: 3}
  m_Name: PlantList
  m_EditorClassIdentifier: 
  itemDetails:
  - itemCode: 9
    itemType: 0
    itemName: watermelon
    itemPrice: 500
    itemQuantity: 1
    startTime: 
    lastWaterTime: 
    growingTime: 160
    dyingTime: 360
    spriteLink: M Studio/Plants/Watermelon/
    prefabLink: 
    plot: 
  - itemCode: 10
    itemType: 0
    itemName: pinkradish
    itemPrice: 500
    itemQuantity: 1
    startTime: 
    lastWaterTime: 
    growingTime: 180
    dyingTime: 360
    spriteLink: M Studio/Plants/PinkRadish/
    prefabLink: 
    plot: 
  - itemCode: 11
    itemType: 0
    itemName: pumpkin
    itemPrice: 500
    itemQuantity: 1
    startTime: 
    lastWaterTime: 
    growingTime: 150
    dyingTime: 360
    spriteLink: M Studio/Plants/Pumpkin/
    prefabLink: 
    plot: 
