%YAML 1.1
%TAG !u! tag:unity3d.com,2011:
--- !u!114 &11400000
MonoBehaviour:
  m_ObjectHideFlags: 0
  m_CorrespondingSourceObject: {fileID: 0}
  m_PrefabInstance: {fileID: 0}
  m_PrefabAsset: {fileID: 0}
  m_GameObject: {fileID: 0}
  m_Enabled: 1
  m_EditorHideFlags: 0
  m_Script: {fileID: 11500000, guid: 35c632bea1453fe4a9880a918f3b330e, type: 3}
  m_Name: playerHair
  m_EditorClassIdentifier: 
  itemDetails:
  - itemCode: 0
    itemType: 13
    itemDescription: 
    itemSprite: {fileID: 21300000, guid: 4f0dd131b12dedd4ab00dbc4a503835d, type: 3}
    itemLongDescription: 
    itemUseGridRadius: 0
    itemUseRadius: 0
    isStartingItem: 0
    canBePickedUp: 0
    canBeDropped: 0
    canBeEaten: 0
    canBeCarried: 0
    itemPrice: 200
    spriteLink: Human/Hair/hair01
    quantity: 0
  - itemCode: 1
    itemType: 13
    itemDescription: 
    itemSprite: {fileID: 21300000, guid: 13f7a4e0930285548a8dc6c8850b2973, type: 3}
    itemLongDescription: 
    itemUseGridRadius: 0
    itemUseRadius: 0
    isStartingItem: 0
    canBePickedUp: 0
    canBeDropped: 0
    canBeEaten: 0
    canBeCarried: 0
    itemPrice: 250
    spriteLink: Human/Hair/hair02
    quantity: 0
  - itemCode: 2
    itemType: 13
    itemDescription: 
    itemSprite: {fileID: 21300000, guid: fc9d7fd56e888cc4f9a847883e34a0ec, type: 3}
    itemLongDescription: 
    itemUseGridRadius: 0
    itemUseRadius: 0
    isStartingItem: 0
    canBePickedUp: 0
    canBeDropped: 0
    canBeEaten: 0
    canBeCarried: 0
    itemPrice: 450
    spriteLink: Human/Hair/hair03
    quantity: 0
  - itemCode: 3
    itemType: 13
    itemDescription: 
    itemSprite: {fileID: 21300000, guid: c84ce2e132fd3984e8d8337bcd88c3c7, type: 3}
    itemLongDescription: 
    itemUseGridRadius: 0
    itemUseRadius: 0
    isStartingItem: 0
    canBePickedUp: 0
    canBeDropped: 0
    canBeEaten: 0
    canBeCarried: 0
    itemPrice: 430
    spriteLink: Human/Hair/hair04
    quantity: 1
  - itemCode: 4
    itemType: 13
    itemDescription: 
    itemSprite: {fileID: 21300000, guid: 35dca23c91d6de346bbfd88d83afa30f, type: 3}
    itemLongDescription: 
    itemUseGridRadius: 0
    itemUseRadius: 0
    isStartingItem: 0
    canBePickedUp: 0
    canBeDropped: 0
    canBeEaten: 0
    canBeCarried: 0
    itemPrice: 299
    spriteLink: Human/Hair/hair05
    quantity: 0
  - itemCode: 5
    itemType: 13
    itemDescription: 
    itemSprite: {fileID: 21300000, guid: 8bdbc8a74bf977247a61c641504dcfd4, type: 3}
    itemLongDescription: 
    itemUseGridRadius: 0
    itemUseRadius: 0
    isStartingItem: 0
    canBePickedUp: 0
    canBeDropped: 0
    canBeEaten: 0
    canBeCarried: 0
    itemPrice: 440
    spriteLink: Human/Hair/hair06
    quantity: 0
  - itemCode: 6
    itemType: 13
    itemDescription: 
    itemSprite: {fileID: 21300000, guid: 7862b05db83cb964791ae3f38262c24e, type: 3}
    itemLongDescription: 
    itemUseGridRadius: 0
    itemUseRadius: 0
    isStartingItem: 0
    canBePickedUp: 0
    canBeDropped: 0
    canBeEaten: 0
    canBeCarried: 0
    itemPrice: 160
    spriteLink: Human/Hair/hair07
    quantity: 0
  - itemCode: 7
    itemType: 13
    itemDescription: 
    itemSprite: {fileID: 21300000, guid: d84f24434e89ab54db501d7bd7f3e560, type: 3}
    itemLongDescription: 
    itemUseGridRadius: 0
    itemUseRadius: 0
    isStartingItem: 0
    canBePickedUp: 0
    canBeDropped: 0
    canBeEaten: 0
    canBeCarried: 0
    itemPrice: 190
    spriteLink: Human/Hair/hair08
    quantity: 0
  - itemCode: 8
    itemType: 13
    itemDescription: 
    itemSprite: {fileID: 21300000, guid: ffba8e0d696af584db6fa09f96a76827, type: 3}
    itemLongDescription: 
    itemUseGridRadius: 0
    itemUseRadius: 0
    isStartingItem: 0
    canBePickedUp: 0
    canBeDropped: 0
    canBeEaten: 0
    canBeCarried: 0
    itemPrice: 500
    spriteLink: Human/Hair/hair09
    quantity: 1
  - itemCode: 9
    itemType: 13
    itemDescription: 
    itemSprite: {fileID: 21300000, guid: e15728d557f7e83438e043d4ec51ecc1, type: 3}
    itemLongDescription: 
    itemUseGridRadius: 0
    itemUseRadius: 0
    isStartingItem: 0
    canBePickedUp: 0
    canBeDropped: 0
    canBeEaten: 0
    canBeCarried: 0
    itemPrice: 300
    spriteLink: Human/Hair/hair10
    quantity: 0
