%YAML 1.1
%TAG !u! tag:unity3d.com,2011:
--- !u!114 &11400000
MonoBehaviour:
  m_ObjectHideFlags: 0
  m_CorrespondingSourceObject: {fileID: 0}
  m_PrefabInstance: {fileID: 0}
  m_PrefabAsset: {fileID: 0}
  m_GameObject: {fileID: 0}
  m_Enabled: 1
  m_EditorHideFlags: 0
  m_Script: {fileID: 11500000, guid: 35c632bea1453fe4a9880a918f3b330e, type: 3}
  m_Name: so_ItemList
  m_EditorClassIdentifier: 
  itemDetails:
  - itemCode: 0
    itemType: 3
    itemDescription: 
    itemName: 
    itemSprite: {fileID: 21300000, guid: 1b9349d28ec0d476baa43d4a756de967, type: 3}
    itemLongDescription: 
    itemUseGridRadius: 0
    itemUseRadius: 0
    isStartingItem: 0
    canBePickedUp: 0
    canBeDropped: 0
    canBeEaten: 0
    canBeCarried: 0
    itemPrice: 120
    spriteLink: Weapon/melee07
    frontArmSprite: 
    backArmSprite: 
    quantity: 1
    animator: isHoldingShovel
  - itemCode: 1
    itemType: 6
    itemDescription: 
    itemName: 
    itemSprite: {fileID: 21300000, guid: 016b3db127409404c99ae612f8ab0eb2, type: 3}
    itemLongDescription: 
    itemUseGridRadius: 0
    itemUseRadius: 0
    isStartingItem: 0
    canBePickedUp: 0
    canBeDropped: 0
    canBeEaten: 0
    canBeCarried: 0
    itemPrice: 130
    spriteLink: Weapon/melee08
    frontArmSprite: 
    backArmSprite: 
    quantity: 1
    animator: isHoldingHoe
  - itemCode: 2
    itemType: 5
    itemDescription: 
    itemName: 
    itemSprite: {fileID: 21300000, guid: aeddf073c2285244089b28fc204b9e71, type: 3}
    itemLongDescription: 
    itemUseGridRadius: 0
    itemUseRadius: 0
    isStartingItem: 0
    canBePickedUp: 0
    canBeDropped: 0
    canBeEaten: 0
    canBeCarried: 0
    itemPrice: 250
    spriteLink: Weapon/melee03
    frontArmSprite: 
    backArmSprite: 
    quantity: 2
    animator: isHoldingAxe
  - itemCode: 3
    itemType: 2
    itemDescription: 
    itemName: 
    itemSprite: {fileID: 21300012, guid: 83166c62b1ba4df4fa2b250b8d6fe513, type: 3}
    itemLongDescription: 
    itemUseGridRadius: 0
    itemUseRadius: 0
    isStartingItem: 0
    canBePickedUp: 0
    canBeDropped: 0
    canBeEaten: 0
    canBeCarried: 0
    itemPrice: 250
    spriteLink: 
    frontArmSprite: 
    backArmSprite: 
    quantity: 1
    animator: isHoldingAxe
  - itemCode: 4
    itemType: 10
    itemDescription: 
    itemName: 
    itemSprite: {fileID: 21300054, guid: cb78286d2dfd5894f84f19d41a22da17, type: 3}
    itemLongDescription: 
    itemUseGridRadius: 0
    itemUseRadius: 0
    isStartingItem: 0
    canBePickedUp: 0
    canBeDropped: 0
    canBeEaten: 0
    canBeCarried: 0
    itemPrice: 250
    spriteLink: 
    frontArmSprite: 
    backArmSprite: 
    quantity: 1
    animator: isHoldingAxe
  - itemCode: 5
    itemType: 0
    itemDescription: 
    itemName: 
    itemSprite: {fileID: 21300000, guid: 2caa54613b5959243b35daabd9b42407, type: 3}
    itemLongDescription: 
    itemUseGridRadius: 0
    itemUseRadius: 0
    isStartingItem: 0
    canBePickedUp: 0
    canBeDropped: 0
    canBeEaten: 0
    canBeCarried: 0
    itemPrice: 250
    spriteLink: 
    frontArmSprite: 
    backArmSprite: 
    quantity: 1
    animator: isHoldingAxe
