%YAML 1.1
%TAG !u! tag:unity3d.com,2011:
--- !u!114 &11400000
MonoBehaviour:
  m_ObjectHideFlags: 0
  m_CorrespondingSourceObject: {fileID: 0}
  m_PrefabInstance: {fileID: 0}
  m_PrefabAsset: {fileID: 0}
  m_GameObject: {fileID: 0}
  m_Enabled: 1
  m_EditorHideFlags: 0
  m_Script: {fileID: 11500000, guid: 4dc393dcff11892479f70d0ce7e2c3de, type: 3}
  m_Name: FrontHairDB
  m_EditorClassIdentifier: 
  characters:
  - price: 100
    characterSprite: {fileID: 21300000, guid: 390dc9a37dce3437faf8bbdaa6bfaa51, type: 3}
  - price: 200
    characterSprite: {fileID: 21300000, guid: 6cf026be736ce4f5baa2423ecae71e59, type: 3}
  - price: 150
    characterSprite: {fileID: 21300000, guid: e0429abbe95d04d2ea8f7b6bca732ab2, type: 3}
  - price: 500
    characterSprite: {fileID: 21300000, guid: ea6b38c6407aa48fd93ec0be9f8b46e4, type: 3}
  - price: 600
    characterSprite: {fileID: 21300000, guid: bc6128049e6eb4c71a0a46aac64adaa0, type: 3}
  - price: 300
    characterSprite: {fileID: 21300000, guid: f1d37f062077847a29bc4056047af73b, type: 3}
  - price: 400
    characterSprite: {fileID: 21300000, guid: 839010cd846034ffb8fac2520cbb4d63, type: 3}
  - price: 800
    characterSprite: {fileID: 21300000, guid: 57cc0a3cb10624adeae74883a56a4b85, type: 3}
  - price: 1000
    characterSprite: {fileID: 21300000, guid: 186cc641b8ffe4fb2aeed047cb80ffcf, type: 3}
