%YAML 1.1
%TAG !u! tag:unity3d.com,2011:
--- !u!29 &1
OcclusionCullingSettings:
  m_ObjectHideFlags: 0
  serializedVersion: 2
  m_OcclusionBakeSettings:
    smallestOccluder: 5
    smallestHole: 0.25
    backfaceThreshold: 100
  m_SceneGUID: 00000000000000000000000000000000
  m_OcclusionCullingData: {fileID: 0}
--- !u!104 &2
RenderSettings:
  m_ObjectHideFlags: 0
  serializedVersion: 9
  m_Fog: 0
  m_FogColor: {r: 0.5, g: 0.5, b: 0.5, a: 1}
  m_FogMode: 3
  m_FogDensity: 0.01
  m_LinearFogStart: 0
  m_LinearFogEnd: 300
  m_AmbientSkyColor: {r: 0.212, g: 0.227, b: 0.259, a: 1}
  m_AmbientEquatorColor: {r: 0.114, g: 0.125, b: 0.133, a: 1}
  m_AmbientGroundColor: {r: 0.047, g: 0.043, b: 0.035, a: 1}
  m_AmbientIntensity: 1
  m_AmbientMode: 3
  m_SubtractiveShadowColor: {r: 0.42, g: 0.478, b: 0.627, a: 1}
  m_SkyboxMaterial: {fileID: 0}
  m_HaloStrength: 0.5
  m_FlareStrength: 1
  m_FlareFadeSpeed: 3
  m_HaloTexture: {fileID: 0}
  m_SpotCookie: {fileID: 10001, guid: 0000000000000000e000000000000000, type: 0}
  m_DefaultReflectionMode: 0
  m_DefaultReflectionResolution: 128
  m_ReflectionBounces: 1
  m_ReflectionIntensity: 1
  m_CustomReflection: {fileID: 0}
  m_Sun: {fileID: 0}
  m_IndirectSpecularColor: {r: 0, g: 0, b: 0, a: 1}
  m_UseRadianceAmbientProbe: 0
--- !u!157 &3
LightmapSettings:
  m_ObjectHideFlags: 0
  serializedVersion: 12
  m_GIWorkflowMode: 1
  m_GISettings:
    serializedVersion: 2
    m_BounceScale: 1
    m_IndirectOutputScale: 1
    m_AlbedoBoost: 1
    m_EnvironmentLightingMode: 0
    m_EnableBakedLightmaps: 0
    m_EnableRealtimeLightmaps: 0
  m_LightmapEditorSettings:
    serializedVersion: 12
    m_Resolution: 2
    m_BakeResolution: 40
    m_AtlasSize: 1024
    m_AO: 0
    m_AOMaxDistance: 1
    m_CompAOExponent: 1
    m_CompAOExponentDirect: 0
    m_ExtractAmbientOcclusion: 0
    m_Padding: 2
    m_LightmapParameters: {fileID: 0}
    m_LightmapsBakeMode: 1
    m_TextureCompression: 1
    m_FinalGather: 0
    m_FinalGatherFiltering: 1
    m_FinalGatherRayCount: 256
    m_ReflectionCompression: 2
    m_MixedBakeMode: 1
    m_BakeBackend: 0
    m_PVRSampling: 1
    m_PVRDirectSampleCount: 32
    m_PVRSampleCount: 500
    m_PVRBounces: 2
    m_PVREnvironmentSampleCount: 500
    m_PVREnvironmentReferencePointCount: 2048
    m_PVRFilteringMode: 2
    m_PVRDenoiserTypeDirect: 0
    m_PVRDenoiserTypeIndirect: 0
    m_PVRDenoiserTypeAO: 0
    m_PVRFilterTypeDirect: 0
    m_PVRFilterTypeIndirect: 0
    m_PVRFilterTypeAO: 0
    m_PVREnvironmentMIS: 0
    m_PVRCulling: 1
    m_PVRFilteringGaussRadiusDirect: 1
    m_PVRFilteringGaussRadiusIndirect: 5
    m_PVRFilteringGaussRadiusAO: 2
    m_PVRFilteringAtrousPositionSigmaDirect: 0.5
    m_PVRFilteringAtrousPositionSigmaIndirect: 2
    m_PVRFilteringAtrousPositionSigmaAO: 1
    m_ExportTrainingData: 0
    m_TrainingDataDestination: TrainingData
    m_LightProbeSampleCountMultiplier: 4
  m_LightingDataAsset: {fileID: 0}
  m_LightingSettings: {fileID: 1544290481}
--- !u!196 &4
NavMeshSettings:
  serializedVersion: 2
  m_ObjectHideFlags: 0
  m_BuildSettings:
    serializedVersion: 2
    agentTypeID: 0
    agentRadius: 0.5
    agentHeight: 2
    agentSlope: 45
    agentClimb: 0.4
    ledgeDropHeight: 0
    maxJumpAcrossDistance: 0
    minRegionArea: 2
    manualCellSize: 0
    cellSize: 0.16666667
    manualTileSize: 0
    tileSize: 256
    accuratePlacement: 0
    maxJobWorkers: 0
    preserveTilesOutsideBounds: 0
    debug:
      m_Flags: 0
  m_NavMeshData: {fileID: 0}
--- !u!1001 &288072988
PrefabInstance:
  m_ObjectHideFlags: 0
  serializedVersion: 2
  m_Modification:
    m_TransformParent: {fileID: 2129327995}
    m_Modifications:
    - target: {fileID: 4283426661675366390, guid: 1b8edc686d8a8486ca43ea6b75bd32ff, type: 3}
      propertyPath: m_Name
      value: Watersplash Particle System
      objectReference: {fileID: 0}
    - target: {fileID: 5809921329501996559, guid: 1b8edc686d8a8486ca43ea6b75bd32ff, type: 3}
      propertyPath: looping
      value: 1
      objectReference: {fileID: 0}
    - target: {fileID: 6517508121280825052, guid: 1b8edc686d8a8486ca43ea6b75bd32ff, type: 3}
      propertyPath: m_RootOrder
      value: 4
      objectReference: {fileID: 0}
    - target: {fileID: 6517508121280825052, guid: 1b8edc686d8a8486ca43ea6b75bd32ff, type: 3}
      propertyPath: m_LocalPosition.x
      value: 4.4300003
      objectReference: {fileID: 0}
    - target: {fileID: 6517508121280825052, guid: 1b8edc686d8a8486ca43ea6b75bd32ff, type: 3}
      propertyPath: m_LocalPosition.y
      value: -3.67
      objectReference: {fileID: 0}
    - target: {fileID: 6517508121280825052, guid: 1b8edc686d8a8486ca43ea6b75bd32ff, type: 3}
      propertyPath: m_LocalPosition.z
      value: 0
      objectReference: {fileID: 0}
    - target: {fileID: 6517508121280825052, guid: 1b8edc686d8a8486ca43ea6b75bd32ff, type: 3}
      propertyPath: m_LocalRotation.w
      value: 0.7071068
      objectReference: {fileID: 0}
    - target: {fileID: 6517508121280825052, guid: 1b8edc686d8a8486ca43ea6b75bd32ff, type: 3}
      propertyPath: m_LocalRotation.x
      value: -0.7071068
      objectReference: {fileID: 0}
    - target: {fileID: 6517508121280825052, guid: 1b8edc686d8a8486ca43ea6b75bd32ff, type: 3}
      propertyPath: m_LocalRotation.y
      value: 0
      objectReference: {fileID: 0}
    - target: {fileID: 6517508121280825052, guid: 1b8edc686d8a8486ca43ea6b75bd32ff, type: 3}
      propertyPath: m_LocalRotation.z
      value: 0
      objectReference: {fileID: 0}
    - target: {fileID: 6517508121280825052, guid: 1b8edc686d8a8486ca43ea6b75bd32ff, type: 3}
      propertyPath: m_LocalEulerAnglesHint.x
      value: -90
      objectReference: {fileID: 0}
    - target: {fileID: 6517508121280825052, guid: 1b8edc686d8a8486ca43ea6b75bd32ff, type: 3}
      propertyPath: m_LocalEulerAnglesHint.y
      value: 0
      objectReference: {fileID: 0}
    - target: {fileID: 6517508121280825052, guid: 1b8edc686d8a8486ca43ea6b75bd32ff, type: 3}
      propertyPath: m_LocalEulerAnglesHint.z
      value: 0
      objectReference: {fileID: 0}
    m_RemovedComponents: []
  m_SourcePrefab: {fileID: 100100000, guid: 1b8edc686d8a8486ca43ea6b75bd32ff, type: 3}
--- !u!4 &288072989 stripped
Transform:
  m_CorrespondingSourceObject: {fileID: 6517508121280825052, guid: 1b8edc686d8a8486ca43ea6b75bd32ff, type: 3}
  m_PrefabInstance: {fileID: 288072988}
  m_PrefabAsset: {fileID: 0}
--- !u!1 &357803928
GameObject:
  m_ObjectHideFlags: 0
  m_CorrespondingSourceObject: {fileID: 0}
  m_PrefabInstance: {fileID: 0}
  m_PrefabAsset: {fileID: 0}
  serializedVersion: 6
  m_Component:
  - component: {fileID: 357803931}
  - component: {fileID: 357803930}
  - component: {fileID: 357803929}
  m_Layer: 0
  m_Name: Main Camera
  m_TagString: Untagged
  m_Icon: {fileID: 0}
  m_NavMeshLayer: 0
  m_StaticEditorFlags: 0
  m_IsActive: 1
--- !u!81 &357803929
AudioListener:
  m_ObjectHideFlags: 0
  m_CorrespondingSourceObject: {fileID: 0}
  m_PrefabInstance: {fileID: 0}
  m_PrefabAsset: {fileID: 0}
  m_GameObject: {fileID: 357803928}
  m_Enabled: 1
--- !u!20 &357803930
Camera:
  m_ObjectHideFlags: 0
  m_CorrespondingSourceObject: {fileID: 0}
  m_PrefabInstance: {fileID: 0}
  m_PrefabAsset: {fileID: 0}
  m_GameObject: {fileID: 357803928}
  m_Enabled: 1
  serializedVersion: 2
  m_ClearFlags: 1
  m_BackGroundColor: {r: 0.1509434, g: 0.1509434, b: 0.1509434, a: 1}
  m_projectionMatrixMode: 1
  m_GateFitMode: 2
  m_FOVAxisMode: 0
  m_SensorSize: {x: 36, y: 24}
  m_LensShift: {x: 0, y: 0}
  m_FocalLength: 50
  m_NormalizedViewPortRect:
    serializedVersion: 2
    x: 0
    y: 0
    width: 1
    height: 1
  near clip plane: 0.3
  far clip plane: 1000
  field of view: 60
  orthographic: 1
  orthographic size: 3.57
  m_Depth: -1
  m_CullingMask:
    serializedVersion: 2
    m_Bits: 4294967295
  m_RenderingPath: -1
  m_TargetTexture: {fileID: 0}
  m_TargetDisplay: 0
  m_TargetEye: 3
  m_HDR: 0
  m_AllowMSAA: 1
  m_AllowDynamicResolution: 0
  m_ForceIntoRT: 0
  m_OcclusionCulling: 1
  m_StereoConvergence: 10
  m_StereoSeparation: 0.022
--- !u!4 &357803931
Transform:
  m_ObjectHideFlags: 0
  m_CorrespondingSourceObject: {fileID: 0}
  m_PrefabInstance: {fileID: 0}
  m_PrefabAsset: {fileID: 0}
  m_GameObject: {fileID: 357803928}
  m_LocalRotation: {x: 0, y: 0, z: 0, w: 1}
  m_LocalPosition: {x: 2.63, y: -3.57, z: -10}
  m_LocalScale: {x: 1, y: 1, z: 1}
  m_Children: []
  m_Father: {fileID: 0}
  m_RootOrder: 0
  m_LocalEulerAnglesHint: {x: 0, y: 0, z: 0}
--- !u!1001 &861655803
PrefabInstance:
  m_ObjectHideFlags: 0
  serializedVersion: 2
  m_Modification:
    m_TransformParent: {fileID: 2129327995}
    m_Modifications:
    - target: {fileID: 7901949036346818321, guid: fa81fbb1895b94d0c9fb748331d96d31, type: 3}
      propertyPath: m_RootOrder
      value: 3
      objectReference: {fileID: 0}
    - target: {fileID: 7901949036346818321, guid: fa81fbb1895b94d0c9fb748331d96d31, type: 3}
      propertyPath: m_LocalPosition.x
      value: 2.63
      objectReference: {fileID: 0}
    - target: {fileID: 7901949036346818321, guid: fa81fbb1895b94d0c9fb748331d96d31, type: 3}
      propertyPath: m_LocalPosition.y
      value: 3.57
      objectReference: {fileID: 0}
    - target: {fileID: 7901949036346818321, guid: fa81fbb1895b94d0c9fb748331d96d31, type: 3}
      propertyPath: m_LocalPosition.z
      value: 0
      objectReference: {fileID: 0}
    - target: {fileID: 7901949036346818321, guid: fa81fbb1895b94d0c9fb748331d96d31, type: 3}
      propertyPath: m_LocalRotation.w
      value: 1
      objectReference: {fileID: 0}
    - target: {fileID: 7901949036346818321, guid: fa81fbb1895b94d0c9fb748331d96d31, type: 3}
      propertyPath: m_LocalRotation.x
      value: 0
      objectReference: {fileID: 0}
    - target: {fileID: 7901949036346818321, guid: fa81fbb1895b94d0c9fb748331d96d31, type: 3}
      propertyPath: m_LocalRotation.y
      value: 0
      objectReference: {fileID: 0}
    - target: {fileID: 7901949036346818321, guid: fa81fbb1895b94d0c9fb748331d96d31, type: 3}
      propertyPath: m_LocalRotation.z
      value: 0
      objectReference: {fileID: 0}
    - target: {fileID: 7901949036346818321, guid: fa81fbb1895b94d0c9fb748331d96d31, type: 3}
      propertyPath: m_LocalEulerAnglesHint.x
      value: 0
      objectReference: {fileID: 0}
    - target: {fileID: 7901949036346818321, guid: fa81fbb1895b94d0c9fb748331d96d31, type: 3}
      propertyPath: m_LocalEulerAnglesHint.y
      value: 0
      objectReference: {fileID: 0}
    - target: {fileID: 7901949036346818321, guid: fa81fbb1895b94d0c9fb748331d96d31, type: 3}
      propertyPath: m_LocalEulerAnglesHint.z
      value: 0
      objectReference: {fileID: 0}
    - target: {fileID: 7901949036346818412, guid: fa81fbb1895b94d0c9fb748331d96d31, type: 3}
      propertyPath: m_Name
      value: Rainfall Particle System
      objectReference: {fileID: 0}
    m_RemovedComponents: []
  m_SourcePrefab: {fileID: 100100000, guid: fa81fbb1895b94d0c9fb748331d96d31, type: 3}
--- !u!4 &861655804 stripped
Transform:
  m_CorrespondingSourceObject: {fileID: 7901949036346818321, guid: fa81fbb1895b94d0c9fb748331d96d31, type: 3}
  m_PrefabInstance: {fileID: 861655803}
  m_PrefabAsset: {fileID: 0}
--- !u!1001 &1176873027
PrefabInstance:
  m_ObjectHideFlags: 0
  serializedVersion: 2
  m_Modification:
    m_TransformParent: {fileID: 2129327995}
    m_Modifications:
    - target: {fileID: 2040199982290444598, guid: 0d18110112725407a91d8edaa2078b4d, type: 3}
      propertyPath: m_RootOrder
      value: 0
      objectReference: {fileID: 0}
    - target: {fileID: 2040199982290444598, guid: 0d18110112725407a91d8edaa2078b4d, type: 3}
      propertyPath: m_LocalPosition.x
      value: 0.68
      objectReference: {fileID: 0}
    - target: {fileID: 2040199982290444598, guid: 0d18110112725407a91d8edaa2078b4d, type: 3}
      propertyPath: m_LocalPosition.y
      value: -3.57
      objectReference: {fileID: 0}
    - target: {fileID: 2040199982290444598, guid: 0d18110112725407a91d8edaa2078b4d, type: 3}
      propertyPath: m_LocalPosition.z
      value: 0
      objectReference: {fileID: 0}
    - target: {fileID: 2040199982290444598, guid: 0d18110112725407a91d8edaa2078b4d, type: 3}
      propertyPath: m_LocalRotation.w
      value: 1
      objectReference: {fileID: 0}
    - target: {fileID: 2040199982290444598, guid: 0d18110112725407a91d8edaa2078b4d, type: 3}
      propertyPath: m_LocalRotation.x
      value: 0
      objectReference: {fileID: 0}
    - target: {fileID: 2040199982290444598, guid: 0d18110112725407a91d8edaa2078b4d, type: 3}
      propertyPath: m_LocalRotation.y
      value: 0
      objectReference: {fileID: 0}
    - target: {fileID: 2040199982290444598, guid: 0d18110112725407a91d8edaa2078b4d, type: 3}
      propertyPath: m_LocalRotation.z
      value: 0
      objectReference: {fileID: 0}
    - target: {fileID: 2040199982290444598, guid: 0d18110112725407a91d8edaa2078b4d, type: 3}
      propertyPath: m_LocalEulerAnglesHint.x
      value: 0
      objectReference: {fileID: 0}
    - target: {fileID: 2040199982290444598, guid: 0d18110112725407a91d8edaa2078b4d, type: 3}
      propertyPath: m_LocalEulerAnglesHint.y
      value: 0
      objectReference: {fileID: 0}
    - target: {fileID: 2040199982290444598, guid: 0d18110112725407a91d8edaa2078b4d, type: 3}
      propertyPath: m_LocalEulerAnglesHint.z
      value: 0
      objectReference: {fileID: 0}
    - target: {fileID: 6835981767088017311, guid: 0d18110112725407a91d8edaa2078b4d, type: 3}
      propertyPath: m_Name
      value: Crops Aura Particle System
      objectReference: {fileID: 0}
    m_RemovedComponents: []
  m_SourcePrefab: {fileID: 100100000, guid: 0d18110112725407a91d8edaa2078b4d, type: 3}
--- !u!4 &1176873028 stripped
Transform:
  m_CorrespondingSourceObject: {fileID: 2040199982290444598, guid: 0d18110112725407a91d8edaa2078b4d, type: 3}
  m_PrefabInstance: {fileID: 1176873027}
  m_PrefabAsset: {fileID: 0}
--- !u!850595691 &1544290481
LightingSettings:
  m_ObjectHideFlags: 0
  m_CorrespondingSourceObject: {fileID: 0}
  m_PrefabInstance: {fileID: 0}
  m_PrefabAsset: {fileID: 0}
  m_Name: Settings.lighting
  serializedVersion: 3
  m_GIWorkflowMode: 1
  m_EnableBakedLightmaps: 0
  m_EnableRealtimeLightmaps: 0
  m_RealtimeEnvironmentLighting: 1
  m_BounceScale: 1
  m_AlbedoBoost: 1
  m_IndirectOutputScale: 1
  m_UsingShadowmask: 0
  m_BakeBackend: 0
  m_LightmapMaxSize: 1024
  m_BakeResolution: 40
  m_Padding: 2
  m_TextureCompression: 1
  m_AO: 0
  m_AOMaxDistance: 1
  m_CompAOExponent: 1
  m_CompAOExponentDirect: 0
  m_ExtractAO: 0
  m_MixedBakeMode: 1
  m_LightmapsBakeMode: 1
  m_FilterMode: 1
  m_LightmapParameters: {fileID: 15204, guid: 0000000000000000f000000000000000, type: 0}
  m_ExportTrainingData: 0
  m_TrainingDataDestination: TrainingData
  m_RealtimeResolution: 2
  m_ForceWhiteAlbedo: 0
  m_ForceUpdates: 0
  m_FinalGather: 0
  m_FinalGatherRayCount: 256
  m_FinalGatherFiltering: 1
  m_PVRCulling: 1
  m_PVRSampling: 1
  m_PVRDirectSampleCount: 32
  m_PVRSampleCount: 500
  m_PVREnvironmentSampleCount: 500
  m_PVREnvironmentReferencePointCount: 2048
  m_LightProbeSampleCountMultiplier: 4
  m_PVRBounces: 2
  m_PVRMinBounces: 2
  m_PVREnvironmentMIS: 0
  m_PVRFilteringMode: 2
  m_PVRDenoiserTypeDirect: 0
  m_PVRDenoiserTypeIndirect: 0
  m_PVRDenoiserTypeAO: 0
  m_PVRFilterTypeDirect: 0
  m_PVRFilterTypeIndirect: 0
  m_PVRFilterTypeAO: 0
  m_PVRFilteringGaussRadiusDirect: 1
  m_PVRFilteringGaussRadiusIndirect: 5
  m_PVRFilteringGaussRadiusAO: 2
  m_PVRFilteringAtrousPositionSigmaDirect: 0.5
  m_PVRFilteringAtrousPositionSigmaIndirect: 2
  m_PVRFilteringAtrousPositionSigmaAO: 1
--- !u!1001 &1846410892
PrefabInstance:
  m_ObjectHideFlags: 0
  serializedVersion: 2
  m_Modification:
    m_TransformParent: {fileID: 2129327995}
    m_Modifications:
    - target: {fileID: 3566618490783008016, guid: 22a5b2c1dfe0f467a960321d9c4c1d51, type: 3}
      propertyPath: m_Name
      value: Raindrop Particle System
      objectReference: {fileID: 0}
    - target: {fileID: 3566618490783008109, guid: 22a5b2c1dfe0f467a960321d9c4c1d51, type: 3}
      propertyPath: m_RootOrder
      value: 2
      objectReference: {fileID: 0}
    - target: {fileID: 3566618490783008109, guid: 22a5b2c1dfe0f467a960321d9c4c1d51, type: 3}
      propertyPath: m_LocalPosition.x
      value: 2.63
      objectReference: {fileID: 0}
    - target: {fileID: 3566618490783008109, guid: 22a5b2c1dfe0f467a960321d9c4c1d51, type: 3}
      propertyPath: m_LocalPosition.y
      value: 3.57
      objectReference: {fileID: 0}
    - target: {fileID: 3566618490783008109, guid: 22a5b2c1dfe0f467a960321d9c4c1d51, type: 3}
      propertyPath: m_LocalPosition.z
      value: 0
      objectReference: {fileID: 0}
    - target: {fileID: 3566618490783008109, guid: 22a5b2c1dfe0f467a960321d9c4c1d51, type: 3}
      propertyPath: m_LocalRotation.w
      value: 1
      objectReference: {fileID: 0}
    - target: {fileID: 3566618490783008109, guid: 22a5b2c1dfe0f467a960321d9c4c1d51, type: 3}
      propertyPath: m_LocalRotation.x
      value: 0
      objectReference: {fileID: 0}
    - target: {fileID: 3566618490783008109, guid: 22a5b2c1dfe0f467a960321d9c4c1d51, type: 3}
      propertyPath: m_LocalRotation.y
      value: 0
      objectReference: {fileID: 0}
    - target: {fileID: 3566618490783008109, guid: 22a5b2c1dfe0f467a960321d9c4c1d51, type: 3}
      propertyPath: m_LocalRotation.z
      value: 0
      objectReference: {fileID: 0}
    - target: {fileID: 3566618490783008109, guid: 22a5b2c1dfe0f467a960321d9c4c1d51, type: 3}
      propertyPath: m_LocalEulerAnglesHint.x
      value: 0
      objectReference: {fileID: 0}
    - target: {fileID: 3566618490783008109, guid: 22a5b2c1dfe0f467a960321d9c4c1d51, type: 3}
      propertyPath: m_LocalEulerAnglesHint.y
      value: 0
      objectReference: {fileID: 0}
    - target: {fileID: 3566618490783008109, guid: 22a5b2c1dfe0f467a960321d9c4c1d51, type: 3}
      propertyPath: m_LocalEulerAnglesHint.z
      value: 0
      objectReference: {fileID: 0}
    m_RemovedComponents: []
  m_SourcePrefab: {fileID: 100100000, guid: 22a5b2c1dfe0f467a960321d9c4c1d51, type: 3}
--- !u!4 &1846410893 stripped
Transform:
  m_CorrespondingSourceObject: {fileID: 3566618490783008109, guid: 22a5b2c1dfe0f467a960321d9c4c1d51, type: 3}
  m_PrefabInstance: {fileID: 1846410892}
  m_PrefabAsset: {fileID: 0}
--- !u!1001 &1884044266
PrefabInstance:
  m_ObjectHideFlags: 0
  serializedVersion: 2
  m_Modification:
    m_TransformParent: {fileID: 2129327995}
    m_Modifications:
    - target: {fileID: 3836537818659953551, guid: 2c0e4c2821ea94537bc197d464f761ec, type: 3}
      propertyPath: m_Name
      value: Crops Speckles Particle System
      objectReference: {fileID: 0}
    - target: {fileID: 8624508668058940710, guid: 2c0e4c2821ea94537bc197d464f761ec, type: 3}
      propertyPath: m_RootOrder
      value: 1
      objectReference: {fileID: 0}
    - target: {fileID: 8624508668058940710, guid: 2c0e4c2821ea94537bc197d464f761ec, type: 3}
      propertyPath: m_LocalPosition.x
      value: 2.63
      objectReference: {fileID: 0}
    - target: {fileID: 8624508668058940710, guid: 2c0e4c2821ea94537bc197d464f761ec, type: 3}
      propertyPath: m_LocalPosition.y
      value: -3.57
      objectReference: {fileID: 0}
    - target: {fileID: 8624508668058940710, guid: 2c0e4c2821ea94537bc197d464f761ec, type: 3}
      propertyPath: m_LocalPosition.z
      value: 0
      objectReference: {fileID: 0}
    - target: {fileID: 8624508668058940710, guid: 2c0e4c2821ea94537bc197d464f761ec, type: 3}
      propertyPath: m_LocalRotation.w
      value: 0.7071068
      objectReference: {fileID: 0}
    - target: {fileID: 8624508668058940710, guid: 2c0e4c2821ea94537bc197d464f761ec, type: 3}
      propertyPath: m_LocalRotation.x
      value: -0.7071068
      objectReference: {fileID: 0}
    - target: {fileID: 8624508668058940710, guid: 2c0e4c2821ea94537bc197d464f761ec, type: 3}
      propertyPath: m_LocalRotation.y
      value: 0
      objectReference: {fileID: 0}
    - target: {fileID: 8624508668058940710, guid: 2c0e4c2821ea94537bc197d464f761ec, type: 3}
      propertyPath: m_LocalRotation.z
      value: 0
      objectReference: {fileID: 0}
    - target: {fileID: 8624508668058940710, guid: 2c0e4c2821ea94537bc197d464f761ec, type: 3}
      propertyPath: m_LocalEulerAnglesHint.x
      value: -90
      objectReference: {fileID: 0}
    - target: {fileID: 8624508668058940710, guid: 2c0e4c2821ea94537bc197d464f761ec, type: 3}
      propertyPath: m_LocalEulerAnglesHint.y
      value: 0
      objectReference: {fileID: 0}
    - target: {fileID: 8624508668058940710, guid: 2c0e4c2821ea94537bc197d464f761ec, type: 3}
      propertyPath: m_LocalEulerAnglesHint.z
      value: 0
      objectReference: {fileID: 0}
    m_RemovedComponents: []
  m_SourcePrefab: {fileID: 100100000, guid: 2c0e4c2821ea94537bc197d464f761ec, type: 3}
--- !u!4 &1884044267 stripped
Transform:
  m_CorrespondingSourceObject: {fileID: 8624508668058940710, guid: 2c0e4c2821ea94537bc197d464f761ec, type: 3}
  m_PrefabInstance: {fileID: 1884044266}
  m_PrefabAsset: {fileID: 0}
--- !u!1 &2129327994
GameObject:
  m_ObjectHideFlags: 0
  m_CorrespondingSourceObject: {fileID: 0}
  m_PrefabInstance: {fileID: 0}
  m_PrefabAsset: {fileID: 0}
  serializedVersion: 6
  m_Component:
  - component: {fileID: 2129327995}
  m_Layer: 0
  m_Name: Particles
  m_TagString: Untagged
  m_Icon: {fileID: 0}
  m_NavMeshLayer: 0
  m_StaticEditorFlags: 0
  m_IsActive: 1
--- !u!4 &2129327995
Transform:
  m_ObjectHideFlags: 0
  m_CorrespondingSourceObject: {fileID: 0}
  m_PrefabInstance: {fileID: 0}
  m_PrefabAsset: {fileID: 0}
  m_GameObject: {fileID: 2129327994}
  m_LocalRotation: {x: 0, y: 0, z: 0, w: 1}
  m_LocalPosition: {x: 0, y: 0, z: 0}
  m_LocalScale: {x: 1, y: 1, z: 1}
  m_Children:
  - {fileID: 1176873028}
  - {fileID: 1884044267}
  - {fileID: 1846410893}
  - {fileID: 861655804}
  - {fileID: 288072989}
  m_Father: {fileID: 0}
  m_RootOrder: 1
  m_LocalEulerAnglesHint: {x: 0, y: 0, z: 0}
