%YAML 1.1
%TAG !u! tag:unity3d.com,2011:
--- !u!1 &3250280622869706621
GameObject:
  m_ObjectHideFlags: 0
  m_CorrespondingSourceObject: {fileID: 0}
  m_PrefabInstance: {fileID: 0}
  m_PrefabAsset: {fileID: 0}
  serializedVersion: 6
  m_Component:
  - component: {fileID: 3250280622869706620}
  - component: {fileID: 3250280622869706611}
  m_Layer: 0
  m_Name: _Server_Script
  m_TagString: Untagged
  m_Icon: {fileID: 0}
  m_NavMeshLayer: 0
  m_StaticEditorFlags: 0
  m_IsActive: 1
--- !u!4 &3250280622869706620
Transform:
  m_ObjectHideFlags: 0
  m_CorrespondingSourceObject: {fileID: 0}
  m_PrefabInstance: {fileID: 0}
  m_PrefabAsset: {fileID: 0}
  m_GameObject: {fileID: 3250280622869706621}
  m_LocalRotation: {x: 0, y: 0, z: 0, w: 1}
  m_LocalPosition: {x: 0, y: 0, z: 0}
  m_LocalScale: {x: 1, y: 1, z: 1}
  m_Children: []
  m_Father: {fileID: 0}
  m_RootOrder: 0
  m_LocalEulerAnglesHint: {x: 0, y: 0, z: 0}
--- !u!114 &3250280622869706611
MonoBehaviour:
  m_ObjectHideFlags: 0
  m_CorrespondingSourceObject: {fileID: 0}
  m_PrefabInstance: {fileID: 0}
  m_PrefabAsset: {fileID: 0}
  m_GameObject: {fileID: 3250280622869706621}
  m_Enabled: 1
  m_EditorHideFlags: 0
  m_Script: {fileID: 11500000, guid: 8a9dd7cc2c1aa0045af31ff178e471c4, type: 3}
  m_Name: 
  m_EditorClassIdentifier: 
  welcomePanel: {fileID: 0}
  user: {fileID: 0}
  username: {fileID: 0}
  password: {fileID: 0}
  errorMessages: {fileID: 0}
  progressCircle: {fileID: 0}
  loginButton: {fileID: 0}
  url: http://localhost:4567/account/login
